kategoria,alkategoria,gyarto,ccm,tipus,evjarat,sku,torolve
Yeah,"Első normál TRW-LUCAS",Aprilia,100,"Scarabeo 4T",2003-2009,MCB709,0
Yeah,"Első normál TRW-LUCAS",Aprilia,1000,"ETV CapoNord",2001-2003,MCB671,0
Yeah,"Első normál TRW-LUCAS",Aprilia,1000,"ETV CapoNord ABS",2004-2008,MCB671,0